3002999
3001109
3002867
3001989
3002356
3001855
3002244
3000600
3000988
3002511
3000938
3000928
3002320
3001711
3002193
3002012
3001517
3001832
3001557
3003552
3001980
3002372
3002835
3001794
3001800
3003163
3002146
3003109
3002415
3002804
3002649
3002528
3002771
3003198
3002413
3000504
3003550
3002125
3001808
3001650
3002380
3002538
3002397
3002188
3000904
3001617
3000879
3001082
3002762
3001502
3002795
3001518
3002053
3002546
3002083
3002350
3001099
3001577
3000996
3002620
3002360
3002778
3001100
3001429
3001076
3003026
3001133
3000916
3000887
3002307
3001849
3002157
3002366
3000845
3002233
3000965
3000979
3002066
3002955
3000508
3001904
3001154
3002092
3002067
3003149
3002966
3002059
3002753
3000972
3003203
3001071
3001773
3002243
3002681
3000912
3002507
3000326
3002565
3003209
3002375
3003012
3000954
3002733
3002488
3002282
3002604
3000796
3002304
3001119
3002263
3001364
3001045
3002815
3002828
3000198
3001972
3001912
3001057
3002853
3002883
3002383
3002020
3002634
3002690
3002724
3002595
3002921
3003103
3002203
3001692
3001646
3001422
3001144
3002612
3002676
3002432
3000830
3000777
3000815
3001055
3002574
3003017
3001300
3002830
3001677
3001112
3002318
3001562
3002912
3002299
3000572
3003196
3000173
3003060
3002050
3002287
3002224
3002210
3000944
3002849
3003002
3001886
3002036
3003659
3002942
3002711
3002150
3002343
3000839
3000549
3002514
3001778
3001407
3001535
3001141
3001881
3001480
3001814
3001900
3000983
3001116
3001919
3001918
3001002
3002493
3002477
3002516
3001150
3002403
3003179
3002655
3000423
3002341
3002117
3002600
3001093
3001383
3001416
3001168
3003250
3002459
3002949
3002665
3002429
3000959
3002112
3000840
3002332
3002168
3001948
3001644
3002436
3000826
3002973
3003160
3001472
3003094
3002468
3002797
3001784
3001840
3001181
3001623
3002925
3001850
3001191
3001404
3001347
3002695
3001985
3001024
3002442
3004605
3002654
3002662
3003069
3001455
3002032
3003172
3001486
3000592
3002078
3002278
3002856
3003206
3001175
3002727
3001770
3003097
3002019
3002467
3002015
3002751
3002376
3001658
3002435
3000958
3003095
3001967
3001874
3002071
3001984
3002098
3003055
3000883
3001201
3000934
3002073
3001780
3002843
3002641
3000888
3001350
3003005
3001804
3002293
3002111
3002959
3003553
3002583
3002108
3001384
3000593
3002267
3001302
3001090
3001960
3002129
3002046
3001132
3002257
3001467
3001654
3001041
3002133
3001898
3001015
3001545
3001553
3001897
3000606
3002609
3002767
3002470
3000805
3002701
3001493
3002346
3003167
3002217
3001032
3003565
3003186
3003034
3003811
3002390
3002062
3002192
3003067
3001425
3003155
3002987
3002738
3002409
3002910
3003064
3001065
3002502
3002715
3002739
3000873
3001305
3002308
3002757
3000975
3002569
3001681
3002008
3001021
3002096
3000984
3001887
3002252
3001074
3001161
3001067
3003046
3002169
3001079
3001216
3002837
3000026
3001391
3001453
3002005
3002790
3002774
3002637
3001797
3002458
3000792
3002783
3000194
3002937
3002272
3000844
3002794
3001651
3000413
3001544
3000937
3002181
3002497
3001843
3002863
3001489
3001667
3001818
3001539
3001566
3002927
3002537
3002725
3001442
3002480
3001563
3000903
3001788
3002720
3001513
3003556
3001864
3000874
3002162
3002147
3001094
3001373
3002627
3002520
3002402
3000789
3001704
3001845
3002464
3002426
3002410
3001123
3002276
3001137
3001812
3000809
3002443
3002591
3000893
3002680
3001122
3002868
3001177
3001612
3002483
3002801
3000812
3002314
3000368
3000553
3001628
3001954
3002040
3001408
3001892
3003182
3002941
3001937
3002242
3000392
3001106
3001399
3001018
3000990
3002866
3001637
3002983
3002686
3002533
3002220
3002338
3002300
3002454
3002336
3002764
3001051
3000377
3000377
3000166
3000182
3001299
3003562
3003071
3002698
3000535
3001195
3001048
3002364
3000951
3002324
3002039
3002326
3001633
3002732
3002932
3001662
3002542
3002617
3001930
3000921
3002196
3003049
3000180
3002155
3001872
3003105
3001943
3003175
3002460
3002789
3002969
3002296
3000656
3001572
3001620
3003020
3002024
3001822
3001096
3002521
3003152
3002281
3001909
3002255
3000962
3001672
3002772
3000254
3000997
3000779
3000969
3002562
3002351
3003202
3002850
3002716
3000970
3002084
3001977
3002743
3002305
3001783
3001702
3002956
3001068
3003047
3002967
3001622
3002441
3001047
3002439
3002213
3001136
3001426
3001903
3001882
3001691
3002814
3001767
3001765
3002545
3002530
3002170
3002777
3001070
3002829
3000973
3002734
3002160
3001338
3002618
3002357
3002290
3000939
3002424
3001012
3002262
3001981
3002813
3000768
3002756
3001129
3002995
3003014
3002420
3002013
3003016
3002286
3001329
3001571
3001631
3001859
3001378
3001548
3000206
3001192
3001516
3002506
3002373
3003557
3001710
3002358
3001801
3003551
3001088
3001793
3000498
3002136
3001616
3002761
3002943
3003110
3002298
3000781
3000892
3001542
3003057
3001520
3001856
3002414
3001827
3002245
3003197
3002400
3002396
3000215
3001536
3000956
3002333
3001440
3002601
3002893
3002898
3000476
3004254
3003576
3002674
3002541
3002857
3001610
3001668
3001184
3002116
3002584
3002275
3001028
3003171
3002054
3000882
3001896
3001821
3001926
3002177
3002259
3001994
3002038
3002239
3001410
3001420
3002555
3001471
3002509
3001157
3002065
3000982
3002793
3002088
3001095
3001498
3001776
3002651
3002183
3001982
3001777
3002924
3001025
3001417
3001902
3002079
3003441
3003106
3001382
3002798
3001851
3001176
3001957
3002700
3002127
3002661
3000853
3001911
3001390
3003023
3001117
3002675
3001942
3002864
3002500
3002747
3001959
3002487
3002044
3002877
3001423
3002919
3001126
3002557
3002340
3000621
3001304
3001052
3001871
3002596
3002202
3001678
3002970
3000900
3002852
3002173
3002573
3002492
3002736
3003001
3002529
3002848
3002938
3002051
3002524
3002710
3000784
3001149
3001356
3001394
3002928
3000854
3001910
3002319
3002093
3001805
3002515
3000878
3002342
3001917
3002683
3002156
3002721
3001151
3001485
3001101
3002321
3001113
3002035
3002476
3002517
3002871
3002124
3000205
3002216
3001537
3002248
3002740
3001764
3000589
3002566
3002404
3002948
3003019
3001104
3002234
3002043
3001073
3002389
3002225
3001512
3002884
3000924
3000785
3001893
3001947
3003035
3002709
3003100
3000195
3001189
3002434
3001037
3002836
3001209
3000800
3000802
3000896
3002021
3001488
3000976
3000850
3001398
3003166
3001183
3001929
3000793
3002788
3000005
3001078
3000237
3002768
3000950
3002148
3001196
3002446
3001200
3003096
3002872
3002642
3000935
3002845
3001961
3002055
3002031
3001877
3002728
3002128
3001029
3002143
3001968
3002419
3001655
3001421
3002775
3001663
3002072
3001005
3000746
3004603
3002269
3000911
3001714
3002207
3002369
3002074
3001786
3000775
3001659
3002132
3000518
3000841
3002842
3002329
3003015
3003056
3001171
3002000
3001374
3002658
3000250
3002512
3001958
3000931
3002266
3001091
3000605
3002087
3001110
3002752
3002659
3002103
3001169
3001990
3001569
3002378
3001629
3002997
3001632
3002669
3000860
3001953
3003176
3002704
3001997
3001400
3002061
3002463
3002416
3002626
3001155
3001430
3003153
3000918
3002363
3001019
3002428
3002599
3002295
3002587
3002534
3002325
3001567
3002817
3002339
3001687
3002337
3002431
3002199
3001685
3002430
3001680
3002782
3001973
3000987
3002330
3001636
3002988
3002763
3001438
3000124
3001938
3000596
3001837
3000412
3002645
3001148
3000955
3002496
3001613
3001001
3001145
3001543
3002082
3001811
3001521
3002933
3002563
3002180
3002377
3002892
3000444
3000567
3000167
3000174
3004253
3003577
3003563
3002451
3002694
3002034
3001564
3002881
3002714
3001922
3001643
3001695
3000963
3003558
3001703
3001369
3002349
3000347
3000829
3001867
3000522
3002163
3000361
3001121
3002580
3001131
3000806
3002090
3002301
3001178
3002455
3002592
3002577
3001413
3002923
3002425
3002385
3002256
3001386
3000899
3002315
3002636
3001083
3000832
3001690
3001946
3002646
3002212
3001679
3001916
3000898
3002205
3002593
3001000
3001128
3001059
3002114
3002962
3002660
3001552
3002940
3002713
3002964
3002693
3002699
3003022
3001630
3001130
3001884
3001303
3002832
3002688
3002748
3002182
3002462
3001484
3001060
3002289
3001974
3002297
3002663
3001152
3002405
3001125
3002785
3001999
3001570
3000981
3002576
3002226
3000410
3002153
3001431
3002452
3002475
3000891
3002228
3003116
3002274
3001799
3001197
3002221
3001870
3001511
3002456
3002438
3002052
3001689
3002025
3001035
3002197
3002585
3002254
3001114
3000946
3000601
3000013
3001782
3001787
3001883
3002744
3002028
3000216
3002540
3000467
3002498
3000855
3002466
3002554
3001611
3002629
3001838
3003162
3002847
3000495
3001397
3000842
3003177
3002652
3001474
3002161
3001046
3002444
3001476
3001925
3001418
3002030
3002508
3002531
3000175
3000566
3000803
3000177
3000181
3002556
3001626
3001158
3002171
3000957
3002858
3002099
3001469
3002860
3001402
3001308
3001983
3001022
3002076
3001550
3002481
3002802
3001499
3001901
3002313
3001013
3001826
3000598
3002909
3001080
3000993
3002749
3003111
3002615
3002107
3002174
3002421
3000421
3002359
3001547
3002057
3000556
3001479
3000923
3002737
3002322
3002094
3002195
3000791
3000783
3001965
3000191
3001709
3001660
3001515
3001673
3002824
3002841
3001541
3001214
3002370
3002823
3001411
3001111
3001619
3003107
3001352
3000251
3003151
3001890
3002309
3000448
3002144
3001357
3002760
3002522
3002271
3001802
3004606
3000998
3000380
3001340
3001451
3003157
3002929
3002518
3001670
3003061
3001265
3001043
3000778
3002602
3002041
3001869
3001895
3000616
3000526
3000196
3002178
3003676
3002064
3001583
3001135
3001007
3002622
3000316
3002411
3000977
3002525
3002085
3000676
3002159
3001956
3003165
3003010
3002352
3001908
3001775
3003007
3002780
3001813
3001089
3002648
3003048
3001188
3002769
3003053
3002167
3002624
3002755
3002126
3001766
3002792
3002567
3001928
3002280
3000595
3001487
3002345
3000914
3000967
3002726
3001641
3000846
3002316
3002270
3001092
3001970
3001635
3002440
3001004
3001042
3001969
3001482
3003561
3002895
3002891
3000168
3000149
3002684
3002445
3001941
3000300
3002549
3004608
3002386
3002495
3002261
3002394
3002971
3001841
3002201
3002412
3001642
3000774
3001713
3000794
3001866
3000833
3001186
3000617
3001120
3002485
3001614
3001470
3002560
3002939
3002625
3000516
3001914
3002647
3002944
3001173
3002722
3002878
3000828
3000090
3000810
3001810
3001466
3000807
3001146
3003148
3002258
3000960
3002799
3001500
3002334
3001016
3003018
3001991
3002294
3001495
3001669
3002222
3002240
3002113
3002588
3002703
3000865
3000753
3002781
3002581
3001888
3000230
3002037
3000160
3002022
3002185
3001921
3002535
3001684
3001053
3000578
3002668
3001861
3001568
3000790
3002630
3001649
3003036
3003180
3000838
3000838
3001952
3002619
3000851
3001694
3001406
3002865
3001639
3001686
3001935
3000614
3001576
3001574
3002194
3000858
3001443
3002075
3000986
3002017
3001414
3001792
3001204
3001656
3002730
3002526
3001625
3001652
3002135
3003610
3002605
3000952
3001817
3000886
3002399
3000245
3002198
3000491
3003099
3001115
3001172
3002344
3002029
3000604
3002696
3000910
3000502
3001077
3001134
3001962
3003548
3002246
3002268
3000499
3002505
3002427
3001084
3001772
3003173
3001393
3002957
3002123
3002265
3002206
3001876
3001023
3001939
3002873
3002689
3000178
3002678
3001118
3002513
3002348
3002607
3001072
3002469
3001179
3001313
3002741
3000780
3002149
3001906
3001337
3001058
3001097
3002249
3002231
3003564
3002392
3002379
3002544
3001847
3002190
3002250
3001105
3000941
3002048
3001156
3002839
3002186
3002368
3001857
3001829
3001806
3003011
3003104
3002374
3002657
3002060
3001809
3002472
3002120
3001834
3003051
3002708
3002952
3002974
3003161
3002381
3002776
3002219
3002354
3002056
3001427
3002826
3002844
3001139
3002302
3002229
3001026
3002571
3001108
3001034
3000994
3001437
3000948
3001674
3001344
3002367
3002027
3003117
3002331
3001153
3002603
3000861
3001836
3002982
3002033
3002875
3003205
3002922
3002650
3000375
3003066
3001645
3000843
3000192
3000391
3001182
3002283
3003154
3000816
3002453
3002972
3002628
3001924
3002731
3001839
3003070
3000172
3001475
3002682
3003039
3002935
3001483
3001159
3001627
3001412
3002586
3001170
3002723
3002685
3001823
3002861
3002803
3002086
3001894
3001405
3002765
3002365
3002742
3002077
3002859
3002070
3001307
3003440
3001419
3001061
3001439
3001081
3002482
3002575
3001140
3001945
3003101
3001879
3002787
3001798
3002382
3000594
3002049
3001054
3002635
3002009
3002907
3001549
3000582
3003164
3001103
3002897
3000801
3000569
3002671
3002965
3003194
3002882
3001473
3002833
3001955
3001193
3001056
3002204
3001932
3001915
3002687
3002091
3002926
3002770
3002189
3002122
3001138
3002179
3001664
3002816
3002985
3001124
3001828
3001003
3000808
3000808
3001865
3002152
3002026
3002553
3002211
3002559
3001147
3000980
3001940
3002594
3002437
3001503
3001561
3002247
3002450
3001815
3000782
3000823
3002950
3000947
3002081
3002963
3001388
3002712
3002564
3001868
3002347
3003559
3002547
3001671
3000533
3002656
3002621
3002779
3002465
3001098
3001428
3003093
3001950
3002930
3001688
3002042
3000186
3001006
3001540
3002138
3000999
3002519
3002954
3001848
3000602
3002166
3003207
3002068
3001160
3001803
3002718
3000197
3000978
3002993
3002232
3002961
3001306
3001785
3001584
3001693
3003009
3000343
3001375
3002235
3002947
3000964
3002158
3001127
3001769
3001927
3001676
3000318
3001190
3001606
3002260
3002840
3002353
3002623
3001907
3001075
3000922
3001546
3001086
3001526
3002702
3002215
3002115
3003112
3002209
3001682
3000599
3001327
3001187
3002913
3001885
3002106
3000027
3001514
3002908
3002750
3001538
3002616
3000590
3001647
3001795
3002284
3002433
3002002
3001975
3000989
3000890
3002611
3001966
3002796
3001198
3001661
3002422
3001875
3001779
3000848
3000573
3002523
3000884
3002306
3001522
3000917
3003033
3003178
3001825
3002759
3002945
3001030
3002151
3002145
3003059
3002371
3002130
3002825
3001351
3001014
3001167
3002582
3001468
3002800
3001638
3000995
3001409
3001618
3002719
3002285
3002241
3000847
3002184
3002597
3001992
3000880
3000118
3003181
3000875
3002986
3002561
3002391
3000866
3001889
3003063
3001064
3002335
3002100
3002639
3002589
3002791
3001560
3000961
3001666
3001920
3001824
3002614
3002069
3001621
3001860
3002667
3001648
3001683
3001951
3000074
3001936
3000449
3002323
3002666
3001415
3000859
3001933
3002735
3002279
3001573
3003193
3001465
3002478
3001640
3002273
3002080
3001819
3002317
3001976
3000949
3002401
3001615
3001575
3002968
3002879
3001481
3002176
3002457
3002023
3002494
3002536
3000559
3001705
3001634
3002141
3001971
3002471
3000936
3002175
3002355
3000953
3002590
3001609
3001174
3003003
3002362
3001565
3002958
3001835
3001913
3001807
3000795
3001852
3001842
3001880
3002931
3002423
3003199
3001995
3002572
3002484
3002869
3002387
3002058
3001385
3002631
3001085
3002936
3000363
3000263
3002638
3002911
3002045
3001087
3001796
3001844
3001891
3001017
3002223
3001199
3002838
3001905
3001768
3000811
3002568
3002745
3000378
3000561
3000565
3000165
3000183
3001336
3002006
3001107
3001873
3003168
3001033
3003102
3002846
3000942
3001396
3001194
3001020
3001424
3001858
3002288
3002303
3001830
3003052
3000968
3001781
3001050
3002236
3002461
3001441
3003156
3001102
3003021
3001454
3000974
3003006
3002558
3001665
3003210
3001791
3000010
3002200
3002975
3001345
3001066
3001504
3002707
3002018
3002095
3002894
3002854
3002786
3002570
3002953
3002827
3001944
3001392
3000894
3001675
3001049
3001949
3002218
3001523
3001185
3002606
3001988
3002773
3001361
3000603
3002134
3001774
3001899
3002089
3001712
3000190
3001203
3001963
3001653
3001816
3000926
3001624
3002097
3002758
3000985
3002543
3001657
3001923
3000817
3000971
3001878
3001202
3000193
3002327
3003174
3000929
3003147
3002264
3002608
3002746
3002398
3001510
3001771
3002784
3001519
3003013
3002640
3002862
3002819
3002510
3003549
3001362
3002812
3002418
3002874
3002277
3000319
3000217
3001376
3002016
3002579
3003665
3000862
3000024
3002613
3001062
3003150
3000025
3002644
3000876
3002578
3002489
3002486
3002831
3003037
3002047
3001853
3003589
3004611
3003183
3000856
3000463
3000822
3000478
3000481
3003578
3002672
3004601
3003324
3002598
3002501
3003679
3003680
3003681
3003682
3003698
3003699
3003687
3003689
3003692
3003693
3003030
3003031
3003700
3003704
3003705
3003710
3003712
3003677
3003713
3003670
3003714
3003715
3003716
3003717
3003718
3003719
3003720
3004612
3002934
3002914
3003724
3003731
3003742
3003723
3003727
3003727
3003728
3003725
3003744
3003762
3003745
3003748
3003749
3004613
3004614
3001301
3003655
3003730
3003770
3003772
3003773
3003774
3003767
3003733
3003746
3000510
3000521
3003855
3004617
3004618
3003318
3004615
3003793
3001831
3004619
3003836
3003838
3003796
3003835
3003204
3004620
3003842
3002191
3003200
3003841
3002474
3003848
3004622
3004621
3004623
3004624
3004626
3004629
3004633
3004634
3004635
3004636
3004637
3004639
3004640
3004641
3004643
3004644
3004645
3004647
3004649
3004650
3003894
3003847
3003849
3003850
3003852
3003853
3003853
3003854
3003851
3003856
3004625
3003905
3004632
3003908
3004638
3004642
3004648
3002539
3001555
3003158
3003922
3003923
3003918
3003942
3003920
3003907
3004627
3004652
3003948
3003949
3003950
3003953
3003954
3003955
3003961
3003962
3003964
3003967
3003969
3004656
3004657
3003971
3003971
3004658
3004659
3004660
3004651
3004661
3004662
3004663
3004667
3003952
3004670
3004671
3004628
3001751
3004665
3004669
3004672
3004675
3004666
3004673
3004677
3003980
3004680
3003982
3003983
3003984
3003986
3003987
3003988
3003989
3003990
3003991
3003992
3003994
3004683
3004684
3004685
3004688
3004682
3004693
3004699
3004692
3004704
3004715
3004719
3003981
3004674
3004678
3004686
3004689
3004694
3004720
3003870
3003871
3004679
3004687
3004690
3004695
3004073
3004691
3004696
3000462
3004697
3004054
3004036
3004032
3004033
3004035
3002705
3004072
3004698
3000849
3000620
3002312
3004038
3004039
3004041
3004042
3004043
3003801
3003072
3004056
3004063
3001205
3000179
3003583
3003785
3000804
3000379
3003862
3003863
3003864
3003865
3003866
3003867
3004074
3004075
3004077
3004086
3004087
3004085
3004092
3004089
3004090
3004091
3004093
3003868
3004099
3004100
3004102
3004103
3004105
3004106
3004107
3004110
3004111
3004113
3004123
3004122
3004139
3004142
3004143
3004144
3004146
3004185
3000501
3001328
3002691
3002527
3004189
3004191
3004194
3004213
3004239
3004289
3004290
3004290
3004291
3004292
3004294
3003857
3003858
3003859
3003861
3003860
3003872
3003873
3003874
3003876
3003878
3003879
3003880
3003881
3003882
3003883
3003884
3003885
3003886
3003887
3003888
3004325
3004332
3004336
3004337
3004338
3004339
3004340
3004341
3004342
3004343
3004344
3004345
3004346
3004347
3004348
3004349
3004350
3004351
3004352
3004353
3004354
3004355
3004356
3004357
3004359
3004361
3003128
3004362
3004364
3004379
3004441
3004442
3004444
3004445
3004448
3004450
3000579
3004451
3004452
3004453
3004454
3004455
3004456
3004457
3004458
3004459
3004460
3002679
3002679
3004463
3004464
3004466
3004468
3004470
3004476
3004479
3004478
3001730
3001741
3004489
3004480
3004493
3004494
3004495
3004496
3004498
3004500
3004501
3004502
3004503
3004504
3004505
3004506
3004507
3004508
3004509
3004510
3004511
3004513
3004514
3004515
3004516
3004517
3003741
3004539
3004541
3004542
3004543
3004544
3002361
3004547
3004548
3004549
3004550
3004551
3004552
3004554
3004555
3004556
3004559
3004568
3004569
3004571
3004572
3004573
3004574
3004577
3004580
3004581
3004582
3004583
3004584
3004586
3004587
3004589
3004094
3004590
3004591
3004592
3004595
3004596
3004588
3004597
3004599
