3003223
3003481
3003495
3003515
3003493
3003480
3003402
3003397
3003512
3003544
3003377
3003403
3003408
3003376
3003437
3003497
3003485
3003504
3003436
3003503
3003502
3003518
3003240
3003516
3003239
3003238
3003499
3003514
3003517
3003236
3003237
3003399
3003405
3003406
3003396
3003333
3003410
3003540
3003539
3003543
3003541
3003545
3003542
3003546
3004616
3004654
3003977
3003510
3004165
3003547
3004058
3004159
3004138
3004134
3004149
3004160
3004161
3004169
3004164
3004166
3004167
3004168
3004132
3004131
3004163
3004170
3004173
3004174
3004179
3004180
3004181
3004133
3004150
3004176
3004853
3004836
3004937
3004546
3005083
3004177
3003411
3003372
3003978
3004171
