3003582
3003041
3003028
3003374
3003386
3003390
3003285
3003303
3003326
3003315
3003448
3003323
3003470
3003451
3003380
3003288
3003078
3003291
3003465
3003394
3003297
3003319
3003287
3003079
3003296
3003092
3003392
3003395
3003461
3003283
3003074
3003585
3003455
3003453
3003302
3000464
3003327
3003393
3003304
3003301
3003445
3003295
3003463
3003459
3003357
3003368
3003325
3003305
3003369
3003385
3003294
3003316
3003312
3003373
3003306
3003389
3003458
3003298
3003307
3003317
3003383
3003077
3003314
3003387
3003370
3003379
3003684
3003308
3003310
3003382
3003685
3003573
3003574
3003361
3003702
3003686
3003729
3003775
3003784
3003778
3003769
3003761
3003735
3003737
3003760
3003776
3003779
3003359
3003789
3003817
3003805
3003797
3003777
3003788
3003794
3003818
3003790
3003791
3003792
3003890
3003889
3003896
3003311
3003893
3003928
3003924
3003925
3003926
3003929
3003930
3003931
3003939
3003940
3003941
3003937
3003042
3003917
3003901
3003900
3003902
3003970
3003974
3003995
3004045
3004049
3003751
3003438
3003284
3003895
3003043
3003309
3004097
3004145
3004153
3004157
3004184
3004135
3003899
3004334
3004335
3004446
3004561
3004562
3004563
